LOG 4
26/10/2015 05:21:10 p.m.

SistemaDeBodega (1.0.0)
[][][]
 CREATE ALIAS QTEMP.CIMWMS FOR CP61BPCUSF.CIM(COLOMBIA) 

SistemaDeBodega (1.0.0)
[][][]
 UPDATE ILN SET LMRB = 'A'  WHERE LLOT = '108090' AND LPROD = '108090'

SistemaDeBodega (1.0.0)
[][][]
 INSERT INTO QTEMP.CIMWMS(  INID       ,  INTRN      ,  INLINE     ,  INPROD     ,  INWHSE     ,  INREAS     ,  INLOT      ,  INLOC      ,  INQTY      ,  INCOST     ,  INREF      ,  INREF2     ,  INDATE     ,  INTRAN     ,  INCBY      ,  INCDT      ,  INCTM      )  VALUES ( 'IN' , 70492 , 1 , '108090' , '01' , '01' , '108090' , '' , 240 , 51120 , 94831 , 1 , 20151026 , 'DC' , 'PRUEBA' ,  ( YEAR( NOW() ) * 10000 + MONTH( NOW()  ) * 100 + DAY( NOW() ) ) ,  ( HOUR( NOW() ) * 10000 + MINUTE( NOW() ) * 100 + SECOND( NOW() ) )  )

SistemaDeBodega (1.0.0)
[][][]
CALL PGM(CP61BPCUSR/BCTRAINV)

