LOG 39
10/12/2015 09:57:19 p.m.

SistemaDeBodega (2.0.0)
[][][]
 INSERT INTO CP61BPCUSF.BFPEDID(  ADOCTP     ,  ADOCNR     ,  APO        ,  ANOTE      ,  ALINE      ,  ACUST      ,  ASHIP      ,  APROD      ,  AQORD      ,  AVALOR     ,  ARDTE      ,  ALNOTE     ,  AUSER      )  VALUES ( 'W' , 'AUV-168' , 'VC-425' , '' , 1 ,  500029  , 0 , '120066NQBM' , 2 , 841650 , 20151204 , '' , 'WEBPED' )

SistemaDeBodega (2.0.0)
[][][]
 INSERT INTO CP61BPCUSF.BFPEDID(  ADOCTP     ,  ADOCNR     ,  APO        ,  ANOTE      ,  ALINE      ,  ACUST      ,  ASHIP      ,  APROD      ,  AQORD      ,  AVALOR     ,  ARDTE      ,  ALNOTE     ,  AUSER      )  VALUES ( 'W' , 'AUV-168' , 'VC-425' , '' , 2 ,  500029  , 0 , '160066NQBM' , 2 , 841650 , 20151204 , '' , 'WEBPED' )

SistemaDeBodega (2.0.0)
[][][]
 INSERT INTO CP61BPCUSF.BFPEDID(  ADOCTP     ,  ADOCNR     ,  APO        ,  ANOTE      ,  ALINE      ,  ACUST      ,  ASHIP      ,  APROD      ,  AQORD      ,  AVALOR     ,  ARDTE      ,  ALNOTE     ,  AUSER      )  VALUES ( 'W' , 'AUV-168' , 'VC-425' , '' , 3 ,  500029  , 0 , '180721NQBM' , 2 , 841650 , 20151204 , '' , 'WEBPED' )

SistemaDeBodega (2.0.0)
[][][]
 INSERT INTO CP61BPCUSF.BFPEDID(  ADOCTP     ,  ADOCNR     ,  APO        ,  ANOTE      ,  ALINE      ,  ACUST      ,  ASHIP      ,  APROD      ,  AQORD      ,  AVALOR     ,  ARDTE      ,  ALNOTE     ,  AUSER      )  VALUES ( 'W' , 'AUV-168' , 'VC-425' , '' , 4 ,  500029  , 0 , '106409' , 2 , 1292700 , 20151204 , '' , 'WEBPED' )

SistemaDeBodega (2.0.0)
[][][]
 INSERT INTO CP61BPCUSF.BFPEDID(  ADOCTP     ,  ADOCNR     ,  APO        ,  ANOTE      ,  ALINE      ,  ACUST      ,  ASHIP      ,  APROD      ,  AQORD      ,  AVALOR     ,  ARDTE      ,  ALNOTE     ,  AUSER      )  VALUES ( 'W' , 'AUV-168' , 'VC-425' , '' , 5 ,  500029  , 0 , '154707' , 3 , 455700 , 20151204 , '' , 'WEBPED' )

SistemaDeBodega (2.0.0)
[][][]
 INSERT INTO CP61BPCUSF.BFPEDID(  ADOCTP     ,  ADOCNR     ,  APO        ,  ANOTE      ,  ALINE      ,  ACUST      ,  ASHIP      ,  APROD      ,  AQORD      ,  AVALOR     ,  ARDTE      ,  ALNOTE     ,  AUSER      )  VALUES ( 'W' , 'AUV-168' , 'VC-425' , '' , 6 ,  500029  , 0 , '154708' , 3 , 483600 , 20151204 , '' , 'WEBPED' )

SistemaDeBodega (2.0.0)
[][][]
CALL PGM(CP61BPCUSR/BCGENPED) PARM('AUV-168')

