<svg width="200px"  height="200px"  xmlns="http://www.w3.org/2000/svg" viewBox="0 0 100 100" preserveAspectRatio="xMidYMid" class="lds-double-ring" style="background: rgba(0, 0, 0, 0) none repeat scroll 0% 0%;">
    <circle cx="50" cy="50" ng-attr-r="{{config.radius}}" ng-attr-stroke-width="{{config.width}}" ng-attr-stroke="{{config.c1}}" ng-attr-stroke-dasharray="{{config.dasharray}}" fill="none" stroke-linecap="round" r="40" stroke-width="6" stroke="#e2f3ff" stroke-dasharray="62.83185307179586 62.83185307179586">
      <animateTransform attributeName="transform" type="rotate" calcMode="linear" values="0 50 50;360 50 50" keyTimes="0;1" dur="1.7s" begin="0s" repeatCount="indefinite"></animateTransform>
    </circle>
    <circle cx="50" cy="50" ng-attr-r="{{config.radius2}}" ng-attr-stroke-width="{{config.width}}" ng-attr-stroke="{{config.c2}}" ng-attr-stroke-dasharray="{{config.dasharray2}}" ng-attr-stroke-dashoffset="{{config.dashoffset2}}" fill="none" stroke-linecap="round" r="33" stroke-width="6" stroke="#f8fcff" stroke-dasharray="51.83627878423159 51.83627878423159" stroke-dashoffset="51.83627878423159">
      <animateTransform attributeName="transform" type="rotate" calcMode="linear" values="0 50 50;-360 50 50" keyTimes="0;1" dur="1.7s" begin="0s" repeatCount="indefinite"></animateTransform>
    </circle>
  </svg>