LOG 39
8/16/2012 11:22:54 AM

 INSERT INTO CP61BPCSF.ILM(  WID        ,  WWHS       ,  WLOC       ,  WLTYP      ,  WDESC      ,  LMPRF      )  VALUES ( 'WL' , '01' , 'E00005' , 'P' , 'AA' , '' )

213.62.216.85  CP61BPCSF

