LOG 67
7/11/2012 11:24:17 PM

 CREATE ALIAS QTEMP.CIMWMS FOR CP61BPCUSF.CIM(COLOMBIA) 

 INSERT INTO QTEMP.CIMWMS(  INID       ,  INTRN      ,  INLINE     ,  INREF      ,  INREF2     ,  INPROD     ,  INWHSE     ,  INREAS     ,  INLOT      ,  INLOC      ,  INQTY      ,  INCOST     ,  INDATE     ,  INTRAN     ,  INCBY      ,  INCDT      ,  INCTM      )  VALUES ( 'IN' , 00038 , 1 , 42278 , 1 , '4311' , 'RP' , '01' , 'aaa' , '20' , 0 , 0 ,  ( YEAR( NOW() ) * 10000 + MONTH( NOW()  ) * 100 + DAY( NOW() ) ) , 'UC' , 'USR' ,  ( YEAR( NOW() ) * 10000 + MONTH( NOW()  ) * 100 + DAY( NOW() ) ) ,  ( HOUR( NOW() ) * 10000 + MINUTE( NOW() ) * 100 + SECOND( NOW() ) )  )

 INSERT INTO QTEMP.CIMWMS(  INID       ,  INTRN      ,  INLINE     ,  INREF      ,  INREF2     ,  INPROD     ,  INWHSE     ,  INREAS     ,  INLOT      ,  INLOC      ,  INQTY      ,  INCOST     ,  INDATE     ,  INTRAN     ,  INCBY      ,  INCDT      ,  INCTM      )  VALUES ( 'IN' , 00038 , 2 , 42278 , 2 , '4311' , 'RP' , '01' , 'aaa' , '20' , 110 , 0 ,  ( YEAR( NOW() ) * 10000 + MONTH( NOW()  ) * 100 + DAY( NOW() ) ) , 'UC' , 'USR' ,  ( YEAR( NOW() ) * 10000 + MONTH( NOW()  ) * 100 + DAY( NOW() ) ) ,  ( HOUR( NOW() ) * 10000 + MINUTE( NOW() ) * 100 + SECOND( NOW() ) )  )

CALL PGM(CP61BPCUSR/BCTRAINV)

La operación no se puede realizar mientras se ejecuta asincrónicamente.

La operación no se puede realizar mientras se ejecuta asincrónicamente.

La operación no se puede realizar mientras se ejecuta asincrónicamente.

La operación no se puede realizar mientras se ejecuta asincrónicamente.

La operación no se puede realizar mientras se ejecuta asincrónicamente.

La operación no se puede realizar mientras se ejecuta asincrónicamente.

La operación no se puede realizar mientras se ejecuta asincrónicamente.

