LOG 30
8/30/2012 3:29:24 PM

SistemaDeBodega (0.9.0)
[213.62.216.85][COSIS001][CP61BPCSF]
 INSERT INTO CP61BPCSF.ILM(  WID        ,  WWHS       ,  WLOC       ,  WLTYP      ,  WDESC      ,  LMPRF      )  VALUES ( 'WL' , '01' , 'E00056' , 'P' , 'AAA' , '' )

