LOG 45
8/16/2012 11:36:09 AM

SistemaDeBodega (0.1.6)[213.62.216.85][COSIS001][CP61BPCSF] INSERT INTO CP61BPCSF.ILM(  WID        ,  WWHS       ,  WLOC       ,  WLTYP      ,  WDESC      ,  LMPRF      )  VALUES ( 'WL' , '01' , 'E00008' , 'P' , 'AA' , '' )

