LOG 3
8/28/2012 6:57:57 PM

SistemaDeBodega (0.1.9)
[213.62.216.85][COSIS001][CP61BPCSF]
 INSERT INTO CP61BPCSF.ILM(  WID        ,  WWHS       ,  WLOC       ,  WLTYP      ,  WDESC      ,  LMPRF      )  VALUES ( 'WL' , '01' , 'E0022' , 'P' , '11' , '' )

